## Interface: 30300
## Author: Elv, Bunny
## Version: 1.01
## Title: |cffA11313E|r|cffC4C4C4lvUI|r |cffA11313C|r|cffC4C4C4onfig|r
## Notes: Options for ElvUI.
## RequiredDeps: ElvUI
## LoadOnDemand: true

Libraries\Load_Libraries.xml
locales\load_locales.xml
core.lua
General.lua
auras.lua
datatexts.lua
filters.lua
nameplates.lua
skins.lua
tooltip.lua
unitframes.lua